{
    "message": "The given data was invalid.",
    "errors": {
        "nome": [
            "O campo nome deve ser uma string.",
            "O campo nome não pode ser superior a 50 caracteres."
        ],
       "categoria_pai_id": [
            "O campo categoria pai id deve ser uma inteiro.",
            "O campo categoria pai id selecionado é inválido."
       ] 
    }
}