{
    "message": "The given data was invalid.",
    "errors": {
       "produto_id": [
            "O campo produto id é obrigatório.",
            "O campo produto id deve ser uma inteiro.",
            "O campo produto id selecionado é inválido."
       ],
       "grupo_id": [
            "O campo grupo id é obrigatório.",
            "O campo grupo id deve ser uma inteiro.",
            "O campo grupo id selecionado é inválido."
   ] 
    }
}