{
    "data": {
        "id": 17,
        "usuario": "Mateus",
        "movimentacao_tipo": "ENTRADA",
        "data_criacao": "21/10/2021-05:49:14",
        "produtos": [
            {
                "id": 2,
                "nome": "Smarthphone Samsung.",
                "valor": "100.63",
                "quantidade": 9,
                "data_criacao": "2021/10/21-20:49:14"
            },
            {
                "id": 1,
                "nome": "Smarthphone Xiaomi.",
                "valor": "281.73",
                "quantidade": 9,
                "data_criacao": "2021/10/21-20:49:14"
            }
        ]
    }
}